105,168,189,
105,168,189,
105,168,189,
140,208,232,
105,168,189,
140,208,232,
105,168,189,
140,208,232,
105,168,189,
140,208,232,
105,168,189,
140,208,232,
105,168,189,
140,208,232,
105,168,189,
140,208,232,
105,168,189,
140,208,232,
140,208,232,
140,208,232,
140,208,232,
140,208,232,
140,208,232,
140,208,232,

