0,0,0 		// color 0 = black
0,68,2		// color 1 = green for dots
40,240,10	// color 2 = top of spec
40,237,10 	// 3
40,234,10	// 4
40,231,10	// 5
40,228,10	// 6
40,225,10	// 7
40,222,10	// 8
40,219,10	// 9
40,216,10	// 10 = mid of spec
40,213,10	// 11
40,210,10	// 12
40,207,10	// 13
40,204,10	// 14
40,201,10	// 15
40,198,10	// 16
40,195,10	// 17 = bottom of spec
40,250,10	// 18 = osc 1 (brightest)
40,230,10	// 19 = osc 2
40,210,10	// 20 = osc 3
40,190,10	// 21 = osc 4
40,170,10	// 22 = osc 5 (dimmest)
40,250,10	//23 = analyzer peak dots
