[Normal]
NumPoints=4,37,60,44
PointList=0,0,0,274,274,274,274,0, 195,39,234,39,234,40,236,40,236,41,237,41,237,42,238,42,238,44,239,44,239,50,238,50,238,52,237,52,237,53,236,53,236,54,234,54,234,55,195,55,195,54,193,54,193,53,192,53,192,52,191,52,191,50,190,50,190,44,191,44,191,42,192,42,192,41,193,41,193,40,195,40,195,39, 253,86, 261,86, 261,87, 264,87, 264,88, 265,88, 265,89, 266,89, 266,90, 267,90, 267,91, 268,91, 268,92, 269,92, 269,95, 270,95,270,102,269,103,269,106,268,106,268,107,267,107,267,108,266,108,266,109,265,109,265,110,264,110,264,111,261,111,260,112,253,112,253,111,250,111,250,110,249,110,249,109,248,109,248,108,247,108,247,107,246,107,246,106,245,106,245,103,244,103,244,95, 245,95, 245,92, 246,92, 246,91, 247,91, 247,90, 248,90, 248,89, 249,89, 249,88, 250,88, 250,87, 253,87,265,91,265,94,264,94,264,96,263,96,263,97,264,97,264,100,263,100,263,101,261,101,261,102,260,102,260,103,258,103,258,104,256,104,256,105,254,105,254,106,253,106,253,107,251,107,251,104,252,104,252,102,253,102,253,101,254,101,254,100,253,100,253,97,254,97,254,96,256,96,256,95,257,95,257,94,259,94,259,93,260,93,260,92,263,92,263,91,

[WindowShade]
NumPoints=
PointList=

[Equalizer]
NumPoints=4,36,44
Pointlist=0,0,0,274,274,274,274,0,47,38,66,38,66,39,68,39,68,40,69,40,69,41,70,41,70,43,71,43,71,96,70,96,70,98,69,98,69,99,68,99,68,100,66,100,66,101,47,101,47,100,45,100,45,99,44,99,44,98,43,98,43,96,42,96,42,43,43,43,43,41,44,41,44,40,45,40,45,39,47,39, 63,60,63,63,62,63,62,65,61,65,61,66,62,66,62,69,61,69,61,70,59,70,59,71,58,71,58,72,56,72,56,73,54,73,54,74,52,74,52,75,51,75,51,76,49,76,49,73,50,73,50,71,51,71,51,70,52,70,52,69,51,69,51,66,52,66,52,65,54,65,54,64,55,64,55,63,57,63,57,62,58,62,58,61,61,61,61,60,

[EqualizerWS]
NumPoints=
PointList=