138, 134, 50  
64,  63,  24  
64,  63,  24
64,  63,  24
64,  63,  24
64,  63,  24
64,  63,  24
64,  63,  24
64,  63,  24
64,  63,  24
64,  63,  24
64,  63,  24
64,  63,  24
64,  63,  24
64,  63,  24
64,  63,  24
64,  63,  24
64,  63,  24
64,  63,  24
64,  63,  24
64,  63,  24
64,  63,  24
64,  63,  24
64,  63,  24
