245,245,245,
245,245,245,
204,204,204
186,186,186
204,204,204
186,186,186
204,204,204
186,186,186
204,204,204
186,186,186
204,204,204
186,186,186
204,204,204
186,186,186
204,204,204
186,186,186
204,204,204
186,186,186
204,204,204
204,204,204
204,204,204
204,204,204
204,204,204
166,166,166,


This file modified by Winamp Vis Toolkit
by Andrew Mackowski
http://home.pacbell.net/mackowsk