244,217,169, // color 0 = black
244,217,169, // color 1 = grey for dots
162,135,87, // color 2 = top of spec
162,135,87, // 3
162,135,87, // 4
162,135,87, // 5
162,135,87, // 6
162,135,87, // 7
162,135,87, // 8
162,135,87, // 9
162,135,87, // 10
162,135,87, // 11
162,135,87, // 12
162,135,87, // 13
162,135,87, // 14
162,135,87,  // 15
162,135,87,  // 16
162,135,87,   // 17 = bottom of spec
218,192,144, // 18 = osc 1
208,181,133, // 19 = osc 2
195,168,120, // 20 = osc 3
175,149,101,  // 21 = osc 4
162,135,87,  // 22 = osc 5
190,163,115, // 23 = analyzer peak dots
