[Normal]
Numpoints=4,4,4,4,4,4,4,4,4,4,4,4,4,4,4,4,4,4
Pointlist=25,0 250,0 250,1 25,1  21,1 254,1 254,2 21,2  18,2 257,2 257,3 18,3  16,3 259,3 259,4 16,4  14,4 261,4 261,5 14,5  13,5 262,5 262,6 13,6  11,6 264,6 264,7 11,7  10,7 265,7 265,8 10,8  9,8 266,8 266,9 9,9  8,9 267,9 267,10 8,10  7,10 268,10 268,11 7,11  6,11 269,11 269,13 6,13  5,13 270,13 270,14 5,14  4,14 271,14 271,16 4,16  3,16 272,16 272,18 3,18  2,18 273,18 273,21 2,21  1,21 274,21 274,25 1,25  0,25 275,25 275,116 0,116

[Equalizer]
Numpoints=4,4,4,4,4,4,4,4,4,4,4,4,4,4,4,4,4,4
Pointlist=0,0 275,0 275,13 0,13  1,13 274,13 274,17 1,17  2,17 273,17 273,20 2,20  3,20 272,20 272,22 3,22  4,22 271,22 271,24 4,24  5,24 270,24 270,25 5,25  6,25 269,25 269,27 6,27  7,27 268,27 268,28 7,28  8,28 267,28 267,29 8,29  9,29 266,29 266,30 9,30  10,30 265,20 265,31 10,31  11,31 264,31 264,32 11,32  13,32 262,32 262,33 13,33  14,33 261,33 261,34 14,34  16,34 259,34 259,35 16,35  18,35 257,35 257,36 18,36  21,36 254,36 254,37 21,37  25,37 250,37 250,38 25,38

[WindowShade]
Numpoints=4
Pointlist=0,1 275,1 275,14 0,14