0,0,0     
0,0,0  
255,215,145   
255,205,117     
255,205,116  
255,189,75  
255,189,74    
255,173,31  
255,173,30  
244,155,1 
244,155,0
220,140,0 
220,140,0 
193,136,18   
227,146,19    
244,161,30    
250,170,44    
255,189,79    
255,215,145   
255,205,117     
255,205,116  
255,189,75  
255,189,74    
255,173,31     
