0,0,0	// 0 = black (background color #1)
0,0,0	// 1 = grey (background color #2)
255,255,255	// 2
243,243,243	// 3
231,231,231	// 4
219,219,219	// 5
207,207,207	// 6
195,195,195	// 7
183,183,183	// 8
171,171,171	// 9
159,159,159	// 10 = mid of spec
147,147,147	// 11
147,147,147	// 12
147,147,147	// 13
147,147,147	// 14
147,147,147	// 15
147,147,147	// 16
147,147,147	// 17 = bottom of spec
255,255,255	// 18 = osc 1 (brightest)
255,255,255	// 19 = osc 2
255,255,255	// 20 = osc 3
255,255,255	// 21 = osc 4
255,255,255	// 22 = osc 5 (dimmest)
