
[Normal]
NumPoints= 10
PointList= 0, 5,5,0, 269,0, 274,5, 274,110, 269,115, 17,115, 7,105, 7,97, 0,90

[Equalizer]
NumPoints= 12
PointList= 0, 5,5,0, 269,0, 274,5, 274,110, 269,115, 17,115, 7,105, 7,97, 1,91,1,47,0,47


[WindowShade]
NumPoints=5
PointList=0,0,269,0,275,6,275,116,0,100

