88,26,0,
156,21,0,
88,26,0,
255,8,148,
88,26,0,
255,8,148,
88,26,0,
255,8,148,
88,26,0,
255,8,148,
88,26,0,
255,8,148,
88,26,0,
255,8,148,
88,26,0,
255,8,148,
88,26,0,
255,8,148,
255,8,148,
255,8,148,
255,8,148,
255,8,148,
255,8,148,
234,0,42,


This file modified by Winamp Vis Toolkit
by Andrew Mackowski
http://home.pacbell.net/mackowsk